{"name":"consultarListaDeUsuariosExitosamente()","id":"[engine:junit-jupiter]/[class:co.com.sqa.reto.runners.RetoApiRunner]/[method:consultarListaDeUsuariosExitosamente()]","scenarioId":"[engine:junit-jupiter]/[class:co.com.sqa.reto.runners.RetoApiRunner]","testCaseName":"co.com.sqa.reto.runners.RetoApiRunner","methodName":"consultarListaDeUsuariosExitosamente","testSteps":[{"number":1,"description":"Analista qa consultar usuarios","duration":8011,"startTime":"2026-07-15T12:17:00.592956-05:00[America/Bogota]","result":"SUCCESS","precondition":false,"level":0,"children":[{"number":2,"description":"Analista QA executes a GET on the resource /api/users","duration":7697,"startTime":"2026-07-15T12:17:00.870892-05:00[America/Bogota]","result":"SUCCESS","precondition":false,"level":1,"children":[{"number":3,"description":"GET https://reqres.in/api/users?page\u003d2","duration":32,"startTime":"2026-07-15T12:17:08.509815-05:00[America/Bogota]","result":"SUCCESS","restQuery":{"method":"GET","path":"https://reqres.in/api/users?page\u003d2","content":"","contentType":"application/json","requestHeaders":"Accept\u003dapplication/json\n\t\t\t\tx-api-key\u003dfree_user_3GY598Zw05yBV9OiDjNZEUxqpbr\n\t\t\t\tUser-Agent\u003dMozilla/5.0 (Macintosh; Intel Mac OS X 10_15_7) AppleWebKit/537.36\n\t\t\t\tContent-Type\u003dapplication/json","requestCookies":"","responseHeaders":"Date: Wed, 15 Jul 2026 17:17:08 GMT\nContent-Type: application/json; charset\u003dutf-8\nTransfer-Encoding: chunked\nConnection: keep-alive\nAccess-Control-Allow-Origin: *\nCache-Control: public, max-age\u003d14400, s-maxage\u003d60\nCdn-Cache-Control: max-age\u003d60\nCross-Origin-Opener-Policy: same-origin\nCross-Origin-Resource-Policy: same-origin\nEtag: W/\"5f7-gJiYqcwcxD7jRj00kOp90HWgPMY\"\nNel: {\"report_to\":\"heroku-nel\",\"response_headers\":[\"Via\"],\"max_age\":3600,\"success_fraction\":0.01,\"failure_fraction\":0.1}\nOrigin-Agent-Cluster: ?1\nRatelimit-Limit: 20\nRatelimit-Policy: 20;w\u003d60\nRatelimit-Remaining: 19\nRatelimit-Reset: 60\nReferrer-Policy: strict-origin-when-cross-origin\nReport-To: {\"group\":\"heroku-nel\",\"endpoints\":[{\"url\":\"https://nel.heroku.com/reports?s\u003dOJuqrnzjQE%2Brb0R7SXTl1IzuXje9Wz57tEnOmjlMCYw%3D\\u0026sid\u003dc4c9725f-1ab0-44d8-820f-430df2718e11\\u0026ts\u003d1784135774\"}],\"max_age\":3600}\nReporting-Endpoints: heroku-nel\u003d\"https://nel.heroku.com/reports?s\u003dOJuqrnzjQE%2Brb0R7SXTl1IzuXje9Wz57tEnOmjlMCYw%3D\u0026sid\u003dc4c9725f-1ab0-44d8-820f-430df2718e11\u0026ts\u003d1784135774\"\nServer: cloudflare\nStrict-Transport-Security: max-age\u003d31536000; includeSubDomains\nVia: 1.1 heroku-router\nX-Content-Type-Options: nosniff\nX-Dns-Prefetch-Control: off\nX-Download-Options: noopen\nX-Frame-Options: DENY\nX-Permitted-Cross-Domain-Policies: none\nX-Powered-By: ReqRes.in - Deploy backends in 30 seconds\nX-Ratelimit-Limit: 250\nX-Ratelimit-Remaining: 249\nX-Ratelimit-Reset: 1784160000\nX-Reqres-Docs: https://reqres.in\nX-Reqres-Message: This API is powered by ReqRes. Deploy your own backend in 30 seconds!\nX-Reqres-Templates: https://app.reqres.in/templates\nX-Reqres-Tip: Need more than /api/users? Build custom collections - app.reqres.in/dashboard\nX-Reqres-Trial: true\nX-Reqres-Trial-Days-Remaining: 14\nX-Reqres-Trial-Expires: 2026-07-29T17:11:48.052Z\nX-Reqres-Upgrade: https://app.reqres.in/upgrade\nX-Request-Id: 5458607e-4daa-094b-65d3-ffe289c48c25\nX-Robots-Tag: noindex, nofollow\nX-Xss-Protection: 0\nAge: 54\nCf-Cache-Status: HIT\nContent-Encoding: gzip\nCF-RAY: a1ba6b40d99e8f20-MIA","responseCookies":"","responseBody":"{\n    \"page\": 2,\n    \"per_page\": 6,\n    \"total\": 12,\n    \"total_pages\": 2,\n    \"data\": [\n        {\n            \"id\": 7,\n            \"email\": \"michael.lawson@reqres.in\",\n            \"first_name\": \"Michael\",\n            \"last_name\": \"Lawson\",\n            \"avatar\": \"https://reqres.in/img/faces/7-image.jpg\"\n        },\n        {\n            \"id\": 8,\n            \"email\": \"lindsay.ferguson@reqres.in\",\n            \"first_name\": \"Lindsay\",\n            \"last_name\": \"Ferguson\",\n            \"avatar\": \"https://reqres.in/img/faces/8-image.jpg\"\n        },\n        {\n            \"id\": 9,\n            \"email\": \"tobias.funke@reqres.in\",\n            \"first_name\": \"Tobias\",\n            \"last_name\": \"Funke\",\n            \"avatar\": \"https://reqres.in/img/faces/9-image.jpg\"\n        },\n        {\n            \"id\": 10,\n            \"email\": \"byron.fields@reqres.in\",\n            \"first_name\": \"Byron\",\n            \"last_name\": \"Fields\",\n            \"avatar\": \"https://reqres.in/img/faces/10-image.jpg\"\n        },\n        {\n            \"id\": 11,\n            \"email\": \"george.edwards@reqres.in\",\n            \"first_name\": \"George\",\n            \"last_name\": \"Edwards\",\n            \"avatar\": \"https://reqres.in/img/faces/11-image.jpg\"\n        },\n        {\n            \"id\": 12,\n            \"email\": \"rachel.howell@reqres.in\",\n            \"first_name\": \"Rachel\",\n            \"last_name\": \"Howell\",\n            \"avatar\": \"https://reqres.in/img/faces/12-image.jpg\"\n        }\n    ],\n    \"support\": {\n        \"url\": \"https://benhowdle.im/first-cto-playbook?utm_source\u003dreqres\u0026utm_medium\u003djson\u0026utm_campaign\u003dreferral\",\n        \"text\": \"Become a better CTO. A playbook of painful stories and practical advice from a two-time startup CTO.\"\n    },\n    \"_meta\": {\n        \"powered_by\": \"ReqRes\",\n        \"docs_url\": \"https://app.reqres.in/documentation\",\n        \"upgrade_url\": \"https://app.reqres.in/upgrade\",\n        \"example_url\": \"https://app.reqres.in/examples/notes-app\",\n        \"variant\": \"v1_a\",\n        \"message\": \"Your data persists here. Add auth, logs, and custom schemas to build a real backend.\",\n        \"cta\": {\n            \"label\": \"See example app\",\n            \"url\": \"https://app.reqres.in/examples/notes-app\"\n        },\n        \"context\": \"legacy_success\"\n    }\n}","statusCode":200},"precondition":false,"level":2}]}]},{"number":4,"description":"Then C\u0026oacute;digo de respuesta HTTP should be (200)","duration":50,"startTime":"2026-07-15T12:17:08.958145-05:00[America/Bogota]","result":"SUCCESS","precondition":false,"level":0},{"number":5,"description":"Then La p\u0026aacute;gina en la respuesta should be (2)","duration":1349,"startTime":"2026-07-15T12:17:09.012980-05:00[America/Bogota]","result":"SUCCESS","precondition":false,"level":0},{"number":6,"description":"Then El total de p\u0026aacute;ginas en la respuesta should be (2)","duration":77,"startTime":"2026-07-15T12:17:10.366448-05:00[America/Bogota]","result":"SUCCESS","precondition":false,"level":0}],"userStory":{"id":"co.com.sqa.reto.runners.RetoApiRunner","storyName":"RetoApiRunner","displayName":"RetoApiRunner","storyClassName":"co.com.sqa.reto.runners.RetoApiRunner","path":"co.com.sqa.reto.runners.RetoApiRunner","pathElements":[{"name":"co","description":"co"},{"name":"com","description":"com"},{"name":"sqa","description":"sqa"},{"name":"reto","description":"reto"},{"name":"runners","description":"runners"},{"name":"RetoApiRunner","description":"RetoApiRunner"}],"narrative":"","type":"feature"},"title":"Consultar lista de usuarios exitosamente","tags":[{"name":"Mac","type":"context","displayName":"Mac"}],"startTime":"2026-07-15T12:16:59.915487-05:00[America/Bogota]","duration":10618,"projectKey":"","driver":"","isManualTestingUpToDate":false,"context":"mac","manual":false,"testSource":"JUnit5","actors":[{"name":"Analista QA","can":["call an API at https://reqres.in"]}],"order":0,"result":"SUCCESS"}